<svg width="80" height="80" viewBox="0 0 80 80" fill="none" xmlns="http://www.w3.org/2000/svg">
<g clip-path="url(#clip0)">
<path d="M63.3333 80H16.6667C12.99 80 10 77.01 10 73.3333V43.3333H3.33333C1.46333 43.3333 0 41.87 0 40C0 39.1167 0.36 38.25 0.986667 37.6233L38.8333 0.476673C39.48 -0.156661 40.5167 -0.156661 41.17 0.476673L53.3333 12.4267V5.00001C53.3333 4.08001 54.08 3.33334 55 3.33334H68.3333C69.2533 3.33334 70 4.08001 70 5.00001V28.7667L79.0033 37.61C79.64 38.25 80 39.1167 80 40C80 41.87 78.5367 43.3333 76.6667 43.3333H70V73.3333C70 77.01 67.01 80 63.3333 80Z" fill="#CFD8DC"/>
<path d="M47.5 45C46.12 45 45 43.88 45 42.5V36.6667C45 33.91 42.7567 31.6667 40 31.6667C37.2433 31.6667 35 33.91 35 36.6667V42.5C35 43.88 33.88 45 32.5 45C31.12 45 30 43.88 30 42.5V36.6667C30 31.1533 34.4867 26.6667 40 26.6667C45.5133 26.6667 50 31.1533 50 36.6667V42.5C50 43.88 48.88 45 47.5 45Z" fill="#607D8B"/>
<path d="M50.8333 66.6667H29.1666C25.9499 66.6667 23.3333 64.05 23.3333 60.8333V45.8333C23.3333 42.6167 25.9499 40 29.1666 40H50.8333C54.0499 40 56.6666 42.6167 56.6666 45.8333V60.8333C56.6666 64.05 54.0499 66.6667 50.8333 66.6667Z" fill="#2196F3"/>
<path d="M40 31.6667C37.2433 31.6667 35 33.91 35 36.6667V40H40V31.6667ZM40 0C39.58 0 39.1567 0.16 38.8333 0.476667L0.986667 37.6233C0.36 38.25 0 39.1167 0 40C0 41.87 1.46333 43.3333 3.33333 43.3333H10V73.3333C10 77.01 12.99 80 16.6667 80H40V66.6667H29.1667C25.95 66.6667 23.3333 64.05 23.3333 60.8333V45.8333C23.3333 42.6167 25.95 40 29.1667 40H30V36.6667C30 31.1533 34.4867 26.6667 40 26.6667V0Z" fill="#B4BCC0"/>
<path d="M40 26.6667C34.4867 26.6667 30 31.1533 30 36.6667V40H35V36.6667C35 33.91 37.2433 31.6667 40 31.6667V26.6667Z" fill="#546D79"/>
<path d="M39.9999 40H34.9999H29.9999H29.1666C25.9499 40 23.3333 42.6167 23.3333 45.8333V60.8333C23.3333 64.05 25.9499 66.6667 29.1666 66.6667H39.9999V40Z" fill="#1D83D4"/>
</g>
<defs>
<clipPath id="clip0">
<rect width="80" height="80" fill="white"/>
</clipPath>
</defs>
</svg>
